PAAS Week 09: Summarising data with dplyr and pipes %>%
…
You’ll notice that the syntax is very similar to the syntax used with dplyr::mutate() although the output is very different. Just to contrast, let us look at what would happen if we replaced dplyr::summarise() with dplyr::mutate(). Run the example to check it out.

dplyr::mutate(.data = penguins, average_mass = mean(x = body_mass_g, na.rm = TRUE))

As you can see, dplyr::mutate() also produces a new column called average_mass that is also the average of the values in the body_mass_g column. But instead of collapsing the dataset down into a single row of summaries it just appends that column to the dataset. The output from dplyr::summarise() will only contains columns that were created as part of the call to the summarise function. In contrast dplyr::mutate() will add new columns without getting rid of the ones that already exist.

Grouping a dataset

The dplyr::summarise() function isn’t super useful by itself, but where it really shines is when it’s paired with the dplyr::group_by() function.

The dplyr::group_by() groups rows in a dataset according to the values in a specified column or columns. When you use the dplyr::group_by function by itself it might difficult to tell whether anything has happened. In the two examples below, you can see the output that would be produced if you just typed the name of the dataset into the R Console.

> penguins
# A tibble: 344 x 8
   species island    bill_length_mm bill_depth_mm flipper_length_mm body_mass_g sex     year
   <fct>   <fct>              <dbl>         <dbl>             <int>       <int> <fct>  <int>
 1 Adelie  Torgersen           39.1          18.7               181        3750 male    2007
 2 Adelie  Torgersen           39.5          17.4               186        3800 female  2007
 3 Adelie  Torgersen           40.3          18                 195        3250 female  2007
 4 Adelie  Torgersen           NA            NA                  NA          NA NA      2007
 5 Adelie  Torgersen           36.7          19.3               193        3450 female  2007
 6 Adelie  Torgersen           39.3          20.6               190        3650 male    2007
 7 Adelie  Torgersen           38.9          17.8               181        3625 female  2007
 8 Adelie  Torgersen           39.2          19.6               195        4675 male    2007
 9 Adelie  Torgersen           34.1          18.1               193        3475 NA      2007
10 Adelie  Torgersen           42            20.2               190        4250 NA      2007
# … with 334 more rows

And this is what would be produced if you used the dplyr::group_by function. We’ll break down the command shortly, but let’s just look at the output first.

> dplyr::group_by(.data = penguins, species)
# A tibble: 344 x 8
# Groups:   species [3]
  species island    bill_length_mm bill_depth_mm flipper_length_mm body_mass_g sex     year
   <fct>   <fct>              <dbl>         <dbl>             <int>       <int> <fct>  <int>
 1 Adelie  Torgersen           39.1          18.7               181        3750 male    2007
 2 Adelie  Torgersen           39.5          17.4               186        3800 female  2007
 3 Adelie  Torgersen           40.3          18                 195        3250 female  2007
 4 Adelie  Torgersen           NA            NA                  NA          NA NA      2007
 5 Adelie  Torgersen           36.7          19.3               193        3450 female  2007
 6 Adelie  Torgersen           39.3          20.6               190        3650 male    2007
 7 Adelie  Torgersen           38.9          17.8               181        3625 female  2007
 8 Adelie  Torgersen           39.2          19.6               195        4675 male    2007
 9 Adelie  Torgersen           34.1          18.1               193        3475 NA      2007
10 Adelie  Torgersen           42            20.2               190        4250 NA      2007
# … with 334 more rows
…
